<svg xmlns="http://www.w3.org/2000/svg" width="31.174" height="29.975" viewBox="0 0 31.174 29.975">
  <path id="Path_192" data-name="Path 192" d="M63.587,64A11.952,11.952,0,0,0,53.321,82.135l-4.946,4.908L48,87.38v1.8h4.8v4.8h1.761l.375-.337,5.92-5.995a11.261,11.261,0,0,0,5.47,0l5.92,5.995.375.337h1.761v-4.8h4.8v-1.8l-.375-.337-4.946-4.908a11.887,11.887,0,0,0,1.724-6.145A12.007,12.007,0,0,0,63.587,64Zm0,2.4a9.592,9.592,0,1,1-9.592,9.592A9.574,9.574,0,0,1,63.587,66.4Zm-1.2,3.6a2.379,2.379,0,0,1-2.4,2.4v2.4a4.711,4.711,0,0,0,2.4-.674v5.47h-2.4v2.4h7.194v-2.4h-2.4V69.995ZM54.782,84.083a12.074,12.074,0,0,0,3.559,2.66l-3.147,3.147v-3.11H52.047Zm17.61,0,2.735,2.7H71.98v3.11l-3.147-3.147A12.073,12.073,0,0,0,72.392,84.083Z" transform="translate(-48 -64)" fill="#f64546"/>
</svg>
